aes_ctr = data + 2 + 2 + 2 + 2 + 2 + 16 (counter) + 16 (active counter) + 2 (iterator)
	aes_encrypt = 2 + 2 + 2 + 2 + 16
		aes_mix_cols = 2 + 2 + 5
33 + 44 = 77

aes_ofb = data + 2 + 2 + 2 + 2 + 2 + 16 (iv) + 2 (iterator)
	aes_encrypt = 2 + 2 + 2 + 2 + 16
		aes_mix_cols = 2 + 2 + 5
33 + 26 = 61
